{

	"nombreCompleto" : "Juan Perez",
	"telefono" : "11111111",
	"correo" : "rrivero1@clmconsultores.com",
	"password" : "12345678",
	"regiones" : "VII Maule",
	"comunas" : "Talca",
	"password2" : "12345679"

}

			
			
			
			
		    